properties{
  x = 0,
  y = 0,
  width = 320,
  height = 240,
  min_layer = 0,
  max_layer = 2,
  tileset = "demo tilesets/Overworld",
  music = "forest/lost in the meadows",
}

tile{
  layer = 0,
  x = 0,
  y = 0,
  width = 320,
  height = 240,
  pattern = "1",
  tileset = "demo tilesets/Overworld",
}

tile{
  layer = 0,
  x = 0,
  y = 80,
  width = 48,
  height = 16,
  pattern = "143",
  tileset = "demo tilesets/Overworld",
}

tile{
  layer = 0,
  x = 0,
  y = 128,
  width = 48,
  height = 16,
  pattern = "142",
  tileset = "demo tilesets/Overworld",
}

tile{
  layer = 0,
  x = 176,
  y = 224,
  width = 16,
  height = 16,
  pattern = "141",
  tileset = "demo tilesets/Overworld",
}

tile{
  layer = 0,
  x = 128,
  y = 224,
  width = 16,
  height = 16,
  pattern = "140",
  tileset = "demo tilesets/Overworld",
}

tile{
  layer = 0,
  x = 48,
  y = 136,
  width = 16,
  height = 8,
  pattern = "726",
  tileset = "demo tilesets/Overworld",
}

tile{
  layer = 0,
  x = 64,
  y = 152,
  width = 16,
  height = 8,
  pattern = "726",
  tileset = "demo tilesets/Overworld",
}

tile{
  layer = 0,
  x = 80,
  y = 168,
  width = 16,
  height = 8,
  pattern = "726",
  tileset = "demo tilesets/Overworld",
}

tile{
  layer = 0,
  x = 96,
  y = 184,
  width = 16,
  height = 8,
  pattern = "726",
  tileset = "demo tilesets/Overworld",
}

tile{
  layer = 0,
  x = 112,
  y = 200,
  width = 16,
  height = 8,
  pattern = "726",
  tileset = "demo tilesets/Overworld",
}

tile{
  layer = 0,
  x = 128,
  y = 216,
  width = 16,
  height = 8,
  pattern = "726",
  tileset = "demo tilesets/Overworld",
}

tile{
  layer = 0,
  x = 48,
  y = 80,
  width = 16,
  height = 8,
  pattern = "577",
  tileset = "demo tilesets/Overworld",
}

tile{
  layer = 0,
  x = 48,
  y = 88,
  width = 16,
  height = 8,
  pattern = "725",
  tileset = "demo tilesets/Overworld",
}

tile{
  layer = 0,
  x = 64,
  y = 64,
  width = 16,
  height = 8,
  pattern = "577",
  tileset = "demo tilesets/Overworld",
}

tile{
  layer = 0,
  x = 64,
  y = 72,
  width = 16,
  height = 8,
  pattern = "725",
  tileset = "demo tilesets/Overworld",
}

tile{
  layer = 0,
  x = 80,
  y = 48,
  width = 16,
  height = 8,
  pattern = "577",
  tileset = "demo tilesets/Overworld",
}

tile{
  layer = 0,
  x = 80,
  y = 56,
  width = 16,
  height = 8,
  pattern = "725",
  tileset = "demo tilesets/Overworld",
}

tile{
  layer = 0,
  x = 96,
  y = 32,
  width = 128,
  height = 16,
  pattern = "143",
  tileset = "demo tilesets/Overworld",
}

tile{
  layer = 0,
  x = 224,
  y = 56,
  width = 16,
  height = 8,
  pattern = "578",
  tileset = "demo tilesets/Overworld",
}

tile{
  layer = 0,
  x = 224,
  y = 48,
  width = 16,
  height = 8,
  pattern = "498",
  tileset = "demo tilesets/Overworld",
}

tile{
  layer = 0,
  x = 240,
  y = 72,
  width = 16,
  height = 8,
  pattern = "578",
  tileset = "demo tilesets/Overworld",
}

tile{
  layer = 0,
  x = 240,
  y = 64,
  width = 16,
  height = 8,
  pattern = "498",
  tileset = "demo tilesets/Overworld",
}

tile{
  layer = 0,
  x = 256,
  y = 80,
  width = 16,
  height = 64,
  pattern = "141",
  tileset = "demo tilesets/Overworld",
}

tile{
  layer = 0,
  x = 176,
  y = 216,
  width = 16,
  height = 8,
  pattern = "727",
  tileset = "demo tilesets/Overworld",
}

tile{
  layer = 0,
  x = 192,
  y = 200,
  width = 16,
  height = 8,
  pattern = "727",
  tileset = "demo tilesets/Overworld",
}

tile{
  layer = 0,
  x = 208,
  y = 184,
  width = 16,
  height = 8,
  pattern = "727",
  tileset = "demo tilesets/Overworld",
}

tile{
  layer = 0,
  x = 224,
  y = 168,
  width = 16,
  height = 8,
  pattern = "727",
  tileset = "demo tilesets/Overworld",
}

tile{
  layer = 0,
  x = 240,
  y = 152,
  width = 16,
  height = 8,
  pattern = "727",
  tileset = "demo tilesets/Overworld",
}

tile{
  layer = 0,
  x = 48,
  y = 64,
  width = 16,
  height = 16,
  pattern = "144",
  tileset = "demo tilesets/Overworld",
}

tile{
  layer = 0,
  x = 64,
  y = 48,
  width = 16,
  height = 16,
  pattern = "144",
  tileset = "demo tilesets/Overworld",
}

tile{
  layer = 0,
  x = 80,
  y = 32,
  width = 16,
  height = 16,
  pattern = "144",
  tileset = "demo tilesets/Overworld",
}

tile{
  layer = 0,
  x = 224,
  y = 32,
  width = 16,
  height = 16,
  pattern = "145",
  tileset = "demo tilesets/Overworld",
}

tile{
  layer = 0,
  x = 240,
  y = 48,
  width = 16,
  height = 16,
  pattern = "145",
  tileset = "demo tilesets/Overworld",
}

tile{
  layer = 0,
  x = 256,
  y = 64,
  width = 16,
  height = 16,
  pattern = "145",
  tileset = "demo tilesets/Overworld",
}

tile{
  layer = 0,
  x = 256,
  y = 144,
  width = 16,
  height = 16,
  pattern = "134",
  tileset = "demo tilesets/Overworld",
}

tile{
  layer = 0,
  x = 240,
  y = 160,
  width = 16,
  height = 16,
  pattern = "134",
  tileset = "demo tilesets/Overworld",
}

tile{
  layer = 0,
  x = 224,
  y = 176,
  width = 16,
  height = 16,
  pattern = "134",
  tileset = "demo tilesets/Overworld",
}

tile{
  layer = 0,
  x = 208,
  y = 192,
  width = 16,
  height = 16,
  pattern = "134",
  tileset = "demo tilesets/Overworld",
}

tile{
  layer = 0,
  x = 192,
  y = 208,
  width = 16,
  height = 16,
  pattern = "134",
  tileset = "demo tilesets/Overworld",
}

tile{
  layer = 0,
  x = 112,
  y = 208,
  width = 16,
  height = 16,
  pattern = "135",
  tileset = "demo tilesets/Overworld",
}

tile{
  layer = 0,
  x = 96,
  y = 192,
  width = 16,
  height = 16,
  pattern = "135",
  tileset = "demo tilesets/Overworld",
}

tile{
  layer = 0,
  x = 80,
  y = 176,
  width = 16,
  height = 16,
  pattern = "135",
  tileset = "demo tilesets/Overworld",
}

tile{
  layer = 0,
  x = 64,
  y = 160,
  width = 16,
  height = 16,
  pattern = "135",
  tileset = "demo tilesets/Overworld",
}

tile{
  layer = 0,
  x = 48,
  y = 144,
  width = 16,
  height = 16,
  pattern = "135",
  tileset = "demo tilesets/Overworld",
}

tile{
  layer = 0,
  x = 152,
  y = 120,
  width = 16,
  height = 16,
  pattern = "128",
  tileset = "demo tilesets/Overworld",
}

tile{
  layer = 0,
  x = 136,
  y = 120,
  width = 16,
  height = 16,
  pattern = "129",
  tileset = "demo tilesets/Overworld",
}

tile{
  layer = 0,
  x = 136,
  y = 104,
  width = 16,
  height = 16,
  pattern = "130",
  tileset = "demo tilesets/Overworld",
}

tile{
  layer = 0,
  x = 152,
  y = 104,
  width = 16,
  height = 16,
  pattern = "40",
  tileset = "demo tilesets/Overworld",
}

tile{
  layer = 0,
  x = 168,
  y = 104,
  width = 16,
  height = 16,
  pattern = "126",
  tileset = "demo tilesets/Overworld",
}

tile{
  layer = 0,
  x = 168,
  y = 120,
  width = 16,
  height = 16,
  pattern = "127",
  tileset = "demo tilesets/Overworld",
}

tile{
  layer = 0,
  x = 152,
  y = 88,
  width = 16,
  height = 16,
  pattern = "124",
  tileset = "demo tilesets/Overworld",
}

tile{
  layer = 0,
  x = 168,
  y = 88,
  width = 16,
  height = 16,
  pattern = "125",
  tileset = "demo tilesets/Overworld",
}

tile{
  layer = 0,
  x = 136,
  y = 88,
  width = 16,
  height = 16,
  pattern = "123",
  tileset = "demo tilesets/Overworld",
}

tile{
  layer = 0,
  x = 0,
  y = 0,
  width = 320,
  height = 32,
  pattern = "133",
  tileset = "demo tilesets/Overworld",
}

tile{
  layer = 0,
  x = 0,
  y = 32,
  width = 80,
  height = 16,
  pattern = "133",
  tileset = "demo tilesets/Overworld",
}

tile{
  layer = 0,
  x = 0,
  y = 48,
  width = 64,
  height = 16,
  pattern = "133",
  tileset = "demo tilesets/Overworld",
}

tile{
  layer = 0,
  x = 0,
  y = 64,
  width = 48,
  height = 16,
  pattern = "133",
  tileset = "demo tilesets/Overworld",
}

tile{
  layer = 0,
  x = 240,
  y = 32,
  width = 80,
  height = 16,
  pattern = "133",
  tileset = "demo tilesets/Overworld",
}

tile{
  layer = 0,
  x = 256,
  y = 48,
  width = 64,
  height = 16,
  pattern = "133",
  tileset = "demo tilesets/Overworld",
}

tile{
  layer = 0,
  x = 272,
  y = 64,
  width = 48,
  height = 176,
  pattern = "133",
  tileset = "demo tilesets/Overworld",
}

tile{
  layer = 0,
  x = 192,
  y = 224,
  width = 80,
  height = 16,
  pattern = "133",
  tileset = "demo tilesets/Overworld",
}

tile{
  layer = 0,
  x = 208,
  y = 208,
  width = 64,
  height = 16,
  pattern = "133",
  tileset = "demo tilesets/Overworld",
}

tile{
  layer = 0,
  x = 224,
  y = 192,
  width = 48,
  height = 16,
  pattern = "133",
  tileset = "demo tilesets/Overworld",
}

tile{
  layer = 0,
  x = 240,
  y = 176,
  width = 32,
  height = 16,
  pattern = "133",
  tileset = "demo tilesets/Overworld",
}

tile{
  layer = 0,
  x = 256,
  y = 160,
  width = 16,
  height = 16,
  pattern = "133",
  tileset = "demo tilesets/Overworld",
}

tile{
  layer = 0,
  x = 0,
  y = 224,
  width = 128,
  height = 16,
  pattern = "133",
  tileset = "demo tilesets/Overworld",
}

tile{
  layer = 0,
  x = 0,
  y = 208,
  width = 112,
  height = 16,
  pattern = "133",
  tileset = "demo tilesets/Overworld",
}

tile{
  layer = 0,
  x = 0,
  y = 192,
  width = 96,
  height = 16,
  pattern = "133",
  tileset = "demo tilesets/Overworld",
}

tile{
  layer = 0,
  x = 0,
  y = 176,
  width = 80,
  height = 16,
  pattern = "133",
  tileset = "demo tilesets/Overworld",
}

tile{
  layer = 0,
  x = 0,
  y = 160,
  width = 64,
  height = 16,
  pattern = "133",
  tileset = "demo tilesets/Overworld",
}

tile{
  layer = 0,
  x = 0,
  y = 144,
  width = 48,
  height = 16,
  pattern = "133",
  tileset = "demo tilesets/Overworld",
}

teletransporter{
  name = "forest_upper_right_s",
  layer = 0,
  x = 144,
  y = 240,
  width = 32,
  height = 16,
  transition = "scrolling",
  destination_map = "demo_map/forest/bottom_right",
  destination = "_side",
}

teletransporter{
  name = "forest_upper_right_w_2",
  layer = 0,
  x = -16,
  y = 96,
  width = 16,
  height = 32,
  transition = "scrolling",
  destination_map = "demo_map/forest/upper_center",
  destination = "_side",
}

npc{
  name = "blue_knight_3",
  layer = 0,
  x = 160,
  y = 141,
  enabled_at_start = false,
  direction = 3,
  subtype = 1,
  sprite = "demo/npc/blue_knight/blue_knight",
}

tile{
  layer = 1,
  x = 48,
  y = 128,
  width = 16,
  height = 8,
  pattern = "728",
  tileset = "demo tilesets/Overworld",
}

tile{
  layer = 1,
  x = 64,
  y = 144,
  width = 16,
  height = 8,
  pattern = "728",
  tileset = "demo tilesets/Overworld",
}

tile{
  layer = 1,
  x = 80,
  y = 160,
  width = 16,
  height = 8,
  pattern = "728",
  tileset = "demo tilesets/Overworld",
}

tile{
  layer = 1,
  x = 96,
  y = 176,
  width = 16,
  height = 8,
  pattern = "728",
  tileset = "demo tilesets/Overworld",
}

tile{
  layer = 1,
  x = 112,
  y = 192,
  width = 16,
  height = 8,
  pattern = "728",
  tileset = "demo tilesets/Overworld",
}

tile{
  layer = 1,
  x = 128,
  y = 208,
  width = 16,
  height = 8,
  pattern = "728",
  tileset = "demo tilesets/Overworld",
}

tile{
  layer = 1,
  x = 176,
  y = 208,
  width = 16,
  height = 8,
  pattern = "729",
  tileset = "demo tilesets/Overworld",
}

tile{
  layer = 1,
  x = 192,
  y = 192,
  width = 16,
  height = 8,
  pattern = "729",
  tileset = "demo tilesets/Overworld",
}

tile{
  layer = 1,
  x = 208,
  y = 176,
  width = 16,
  height = 8,
  pattern = "729",
  tileset = "demo tilesets/Overworld",
}

tile{
  layer = 1,
  x = 224,
  y = 160,
  width = 16,
  height = 8,
  pattern = "729",
  tileset = "demo tilesets/Overworld",
}

tile{
  layer = 1,
  x = 240,
  y = 144,
  width = 16,
  height = 8,
  pattern = "729",
  tileset = "demo tilesets/Overworld",
}

